<svg viewBox="0 0 600 600" xmlns="http://www.w3.org/2000/svg" xmlns:xlink="http://www.w3.org/1999/xlink">
  <defs>
    <path d="M147.854 372.965c-6.196-4.615-12.551-10.438-12.551-14.905 0-2.934 5.285-11.978 5.285-11.978h39.3s5.155 8.018 5.155 11.978c0 4.16-6.415 9.823-12.817 14.438-2.179-3.684-4.951-4.323-6.232-1.42-.661 1.504-.792 3.67-.469 5.936a141.25 141.25 0 0 1-6.033 3.636s-1.967-1.129-4.78-2.944c.453-2.512.366-4.972-.364-6.628-1.292-2.942-4.12-2.246-6.316 1.57-.06.104-.12.21-.178.317z" id="a"/>
  </defs>
  <g fill="none" fill-rule="evenodd">
    <path d="M0 0h600v600H0z" fill="#221F4A" fill-rule="nonzero"/>
    <g transform="translate(140 39)" fill-rule="nonzero">
      <path d="M278.015 134.038H42.705c0-14.707 21.27-59.163 63.809-133.37l17.669 117.409 71.888.002L213.716.669c42.866 75.19 64.299 119.646 64.299 133.37z" fill="#FFF"/>
      <path d="M160 506.108L0 394.153V132.857s59.157-21.8 160.205-21.8c101.048 0 159.773 21.8 159.773 21.8v261.296L160 506.108z" fill="#FFF"/>
      <path d="M160 490.371L10.223 386.007V143.345S66.233 123.099 160 123.099V490.37z" fill="#DBDBDB"/>
      <path d="M160.204 123.099c-.07 0-.135.002-.204 0v366.964h.002L308.463 386V143.345s-54.493-20.246-148.26-20.246z" fill="#C6C6C6"/>
      <path d="M241.043 433.275l-12.63-109.604H159v166.955l1 .944c27.005-18.449 54.02-37.88 81.043-58.295z" fill="#3B3B63"/>
      <path fill="#53537A" d="M79 434.14l81 57.43.04-171.236H89.89z"/>
      <path d="M194.66 401.698c0 18.83-17.891 28.164-34.305 28.164s-34.668-9.334-34.668-28.164" fill="#BC9375"/>
      <path d="M160.173 411.436c-13.177 0-19.585-9.504-19.585-29.04h6.283c0 22.872 8.982 22.872 13.302 22.872 4.318 0 13.302 0 13.302-22.872h6.28c0 19.536-6.407 29.04-19.582 29.04z" fill="#FFF"/>
      <path d="M160 387.165c4.054 10.478 11.89 15.717 23.51 15.717 11.376 0 23.247-5.885 28.652-20.428 7.551-20.344 7.475-48.659 7.475-48.659s33.554-41.278 33.554-55.236H160v108.606z" fill="#C49A7E"/>
      <path d="M65.457 278.56c0 16.163 33.264 55.235 33.264 55.235s-.082 28.307 7.477 48.659c5.393 14.533 17.276 20.428 28.655 20.428 11.618 0 20-5.24 25.147-15.717V278.559H65.457z" fill="#D8B7A0"/>
      <path d="M249.186 185.616c-25.866-26.061-32.335-80.406-32.335-80.406-4.83 17.124-15.326 67.614-15.326 67.614s-20.388-6.48-42.35-6.514c-.72 0-.72 68.026 0 204.08l20.908-14.85 3.887-72.066 22.261 24.96 28.678 8.235s10.73-7.519 10.73-7.49c4.555-6.27 6.066-11.611 7.168-14.383 3.983-10.083-4.96-87.196-4.96-87.196-3.175-6.531 1.339-21.984 1.339-21.984z" fill="#3B3B63"/>
      <path d="M119.021 172.82s-10.5-50.488-15.326-67.614c0 0-6.465 54.345-32.335 80.406 0 0 4.515 15.455 1.34 21.984 0 0-8.944 77.117-4.96 87.184 1.1 2.774 2.622 8.112 7.172 14.382 0-.028 10.736 7.493 10.736 7.493l28.67-8.237 22.258-24.956 3.897 72.065 19.548 14.457V165.928c-22.043.036-41 6.892-41 6.892z" fill="#53537A"/>
      <path d="M231.085 54.847c4.292 7.86 41.185 80.52 41.185 105.683l-16.363 43.796c2.768 24.713 8.274 78.41 4.117 88.9-2.566 6.49-12.347 19.838-20.713 30.648l11.438 102.59-15.463 10.94-8.597-74.958c-1.181 7.606-2.958 15.729-5.667 23.023-3.582 9.653-9.912 16.97-18.009 21.302-.474 23.144-22.194 35.63-42.658 35.63-20.634 0-42.536-12.476-43.018-35.612-8.113-4.34-14.451-11.657-18.038-21.32-2.6-7.013-4.353-14.776-5.54-22.128l-8.225 75.442-15.546-11.12 11.227-103.476c-8.432-10.858-18.401-24.405-20.992-30.967-4.156-10.492 1.135-64.181 3.907-88.898l-17.336-45.331v-1.477c0-25.163 37.86-94.807 42.158-102.667l12.261-22.065c7.466 51.123 11.196 76.708 11.19 76.753l6.038 41.428 7.943 12.83c7.632-2.53 20.589-6.044 33.71-6.044 13.134 0 26.178 3.526 33.843 6.053l7.94-12.837 17.2-118.183 12.008 22.065zm-70.73 371.104c9.057 0 21.957-4.024 25.177-14.692-.346.01-.679.038-1.024.038-1.763 0-3.41-.162-5.01-.377-4.672 6.384-11.95 8.321-19.323 8.321-7.36 0-14.625-1.955-19.289-8.33-1.609.226-3.275.386-5.052.386-.34 0-.666-.028-1-.038 3.253 10.668 16.326 14.692 25.52 14.692zm-10.607-17.534c2.809 2.067 6.28 3.217 10.433 3.217 4.13 0 7.585-1.158 10.39-3.217a33.724 33.724 0 0 1-6.045-3.412c-1.615.47-3.161.46-4.353.46-1.198 0-2.76 0-4.388-.47a32.935 32.935 0 0 1-6.037 3.422zm64.359-79.585c11.129-13.576 27.882-35.44 30.309-41.56 1.83-6.3-1.292-48.067-5.265-83.074l-.219-1.941 3.284-8.697c-10.826-11.335-18.379-26.87-23.54-41.54l-.67 4.609-17.093 27.593-6.675-2.794c-.164-.07-17.592-7.238-34.135-7.238-16.649 0-33.795 7.161-33.962 7.232l-6.686 2.818-17.113-27.605-.507-3.537c-5.216 14.527-12.777 29.789-23.552 40.878l3.137 8.287-.22 1.943c-3.974 34.999-7.096 76.765-5.205 83.224 2.366 5.971 19.121 27.836 30.244 41.402l1.856 2.266-.01 2.904c0 .273.033 27.129 6.972 45.819 5.038 13.555 16.214 15.004 20.791 15.004 11.507 0 16.376-10.37 16.576-10.812 2.696-5.21 4.045-13.771 4.045-25.682h6.957c0 9.57 1.45 18.149 4.35 25.739.177.375 5.167 10.782 16.732 10.782 4.567 0 15.747-1.466 20.78-15.021 6.963-18.756 6.97-45.556 6.97-45.82l-.007-2.903 1.856-2.276z" fill="#333152"/>
      <path d="M212.21 255.835h-33.503v.347c0 11.489 10.117 20.795 21.983 20.795 11.871 0 21.988-9.308 21.988-20.795v-.347H212.21z" fill="#333152"/>
      <path d="M187.082 255.835v.347c0 6.834 5.602 12.372 12.566 12.372s12.564-5.538 12.564-12.372v-.347h-25.13z" fill="#FFF"/>
      <path d="M197.636 255.835c-.057 0-.107.028-.158.038.73.15 1.135 1.777.978 2.858-.235 1.654-1.67 2.802-3.315 2.83.479 2.162 2.274 3.9 4.658 4.23 3.046.423 5.862-1.629 6.293-4.617.311-2.2-.766-5.339-2.568-5.339h-5.888zM131.336 255.835H97.835v.347c0 11.489 10.12 20.795 21.984 20.795 11.87 0 21.99-9.308 21.99-20.795v-.347h-10.473z" fill="#333152"/>
      <path d="M106.212 255.835v.347c0 6.834 5.606 12.372 12.56 12.372 6.966 0 12.566-5.538 12.566-12.372v-.347h-25.126z" fill="#FFF"/>
      <path d="M122.655 255.835h-5.895c-.05 0-.106.028-.153.038.728.15 1.13 1.777.977 2.858-.237 1.654-1.664 2.802-3.318 2.83.484 2.162 2.28 3.9 4.66 4.23 3.044.423 5.865-1.629 6.29-4.617.315-2.2-.76-5.339-2.561-5.339z" fill="#333152"/>
      <path d="M209.683 246.029c1.406-1.514 13.349-14.816-2.624-14.816-14.432 0-24.817 11.432-27.569 14.816h30.193z" fill="#C49A7E"/>
      <path d="M140.788 246.029c-2.75-3.384-13.134-14.816-27.571-14.816-15.964 0-4.022 13.302-2.623 14.816h30.194zM64.004 156.175c.948-13.052 14.78-44.324 27.974-70.678l3.516 24.096c-1.34 9.01-7.47 44.344-23.913 66.616l-7.577-20.034z" fill="#D8B7A0"/>
      <path d="M225.131 107.717l3.241-22.218c13.192 26.352 27.032 57.626 27.98 70.678l-7.4 19.559c-17.765-24.518-23.338-64.376-23.82-68.02z" fill="#C49A7E"/>
      <use fill="#333152" xlink:href="#a"/>
    </g>
  </g>
</svg>