<?xml version="1.0" standalone="yes"?>
<svg xmlns="http://www.w3.org/2000/svg" viewBox="0 0 1240 1240">
<path style="fill:#000000; stroke:none;" d="M0 0L0 1240C3.20561 1232.36 1 1220.27 1 1212L1 1150L1 933L1 271L1 80L1 25C1 17.52 2.90323 6.91882 0 0z"/>
<path style="fill:#333333; stroke:none;" d="M1 0L1 1240L1240 1240L1240 0L1 0z"/>
<path style="fill:#2d7441; stroke:none;" d="M938 261L938 412C939.661 408.041 939 403.26 939 399L939 374L939 295L939 273C939 269.017 939.552 264.699 938 261z"/>
<path style="fill:#25c151; stroke:none;" d="M939 261L939 412L805 412C773.189 412 742.316 409.901 712 421.229C702.727 424.694 693.882 429.941 686 435.898C678.963 441.217 672.868 447.156 667.31 454C637.333 490.915 642 537.538 642 582L642 676C642 715.817 640.641 756.683 668.3 789C683.783 807.09 705.546 820.684 729 825.625C749.094 829.858 769.601 829 790 829L859 829C877.732 829 897.365 830.693 916 828.829C954.021 825.028 991.886 805.216 1010.69 771C1025.84 743.418 1026 714.561 1026 684L1026 608L1026 261L939 261z"/>
<path style="fill:#2a8a45; stroke:none;" d="M1026 261L1026 714C1027.55 710.301 1027 705.983 1027 702L1027 680L1027 601L1027 361L1027 292C1027 282.94 1029.51 269.357 1026 261z"/>
<path style="fill:#2d6c3f; stroke:none;" d="M324 410C325.506 410.683 326.315 410.826 328 411C326.494 410.317 325.685 410.174 324 410z"/>
<path style="fill:#28a74c; stroke:none;" d="M328 410C332.469 411.875 338.191 411 343 411L374 411L481 411C476.531 409.125 470.809 410 466 410L435 410L328 410z"/>
<path style="fill:#2a8c46; stroke:none;" d="M481 410C483.613 411.098 486.164 410.993 489 411C486.387 409.902 483.835 410.007 481 410z"/>
<path style="fill:#299949; stroke:none;" d="M318 411C319.506 411.683 320.315 411.826 322 412C320.494 411.317 319.685 411.174 318 411z"/>
<path style="fill:#25c151; stroke:none;" d="M215 979L301 979L301 868L301 840C301 836.899 300.178 832.029 302.603 829.603C306.112 826.095 316.41 828 321 828L374 828L455 828C470.668 828 486.438 828.702 502 826.714C521.72 824.196 542.659 815.116 558 802.536C582.306 782.604 595.872 752.961 598.83 722C600.177 707.903 599 693.161 599 679L599 598L599 542C599 532.15 599.916 521.782 598.714 512C597.167 499.413 593.498 486.511 588.208 475C584.266 466.42 579.079 458.284 573.076 451C553.005 426.644 522.899 414.122 492 411.17C479.21 409.948 465.848 411 453 411L384 411C364.258 411 343.648 409.292 324 411.17C288.9 414.524 254.872 431.419 234.746 461C215.779 488.879 215 519.583 215 552L215 621L215 979z"/>
<path style="fill:#2d7040; stroke:none;" d="M494 411C495.506 411.683 496.315 411.826 498 412C496.494 411.317 495.685 411.174 494 411z"/>
<path style="fill:#2e613d; stroke:none;" d="M755 411C760.216 413.189 767.381 412 773 412L809 412L938 412C932.784 409.811 925.619 411 920 411L883 411L755 411z"/>
<path style="fill:#2a8a45; stroke:none;" d="M313.667 412.333C313.222 412.778 314.278 412.722 314.333 412.667C314.778 412.222 313.722 412.278 313.667 412.333z"/>
<path style="fill:#2a8c46; stroke:none;" d="M501.667 412.333C501.222 412.778 502.278 412.722 502.333 412.667C502.778 412.222 501.722 412.278 501.667 412.333z"/>
<path style="fill:#30563a; stroke:none;" d="M742 412C743.769 412.779 745.036 412.912 747 413C745.231 412.221 743.964 412.088 742 412z"/>
<path style="fill:#2d7240; stroke:none;" d="M307 413C308.248 413.685 308.548 413.749 310 414C308.752 413.315 308.452 413.251 307 413z"/>
<path style="fill:#2a9147; stroke:none;" d="M506.667 413.333C506.222 413.778 507.278 413.722 507.333 413.667C507.778 413.222 506.722 413.278 506.667 413.333z"/>
<path style="fill:#2e673e; stroke:none;" d="M508 413C509.248 413.685 509.548 413.749 511 414C509.752 413.315 509.452 413.251 508 413z"/>
<path style="fill:#2c7b42; stroke:none;" d="M303.667 414.333C303.222 414.778 304.278 414.722 304.333 414.667C304.778 414.222 303.722 414.278 303.667 414.333z"/>
<path style="fill:#2a8b46; stroke:none;" d="M511 414C512.248 414.685 512.548 414.749 514 415C512.752 414.315 512.452 414.251 511 414z"/>
<path style="fill:#2d7140; stroke:none;" d="M733.667 414.333C733.222 414.778 734.278 414.722 734.333 414.667C734.778 414.222 733.722 414.278 733.667 414.333z"/>
<path style="fill:#2c7f43; stroke:none;" d="M729.667 415.333C729.222 415.778 730.278 415.722 730.333 415.667C730.778 415.222 729.722 415.278 729.667 415.333z"/>
<path style="fill:#2c7641; stroke:none;" d="M290.667 418.333C290.222 418.778 291.278 418.722 291.333 418.667C291.778 418.222 290.722 418.278 290.667 418.333z"/>
<path style="fill:#2e653d; stroke:none;" d="M525.667 418.333C525.222 418.778 526.278 418.722 526.333 418.667C526.778 418.222 525.722 418.278 525.667 418.333z"/>
<path style="fill:#2b8745; stroke:none;" d="M719.667 418.333C719.222 418.778 720.278 418.722 720.333 418.667C720.778 418.222 719.722 418.278 719.667 418.333z"/>
<path style="fill:#299648; stroke:none;" d="M288.667 419.333C288.222 419.778 289.278 419.722 289.333 419.667C289.778 419.222 288.722 419.278 288.667 419.333z"/>
<path style="fill:#2f5a3b; stroke:none;" d="M528.667 419.333C528.222 419.778 529.278 419.722 529.333 419.667C529.778 419.222 528.722 419.278 528.667 419.333z"/>
<path style="fill:#2b8945; stroke:none;" d="M716.667 419.333C716.222 419.778 717.278 419.722 717.333 419.667C717.778 419.222 716.722 419.278 716.667 419.333z"/>
<path style="fill:#2a9347; stroke:none;" d="M590.333 480.667C590.278 480.722 590.222 481.778 590.667 481.333C590.722 481.278 590.778 480.222 590.333 480.667z"/>
<path style="fill:#2a8e46; stroke:none;" d="M222.333 484.667C222.278 484.722 222.222 485.778 222.667 485.333C222.722 485.278 222.778 484.222 222.333 484.667z"/>
<path style="fill:#2c7b42; stroke:none;" d="M649.333 485.667C649.278 485.722 649.222 486.778 649.667 486.333C649.722 486.278 649.778 485.222 649.333 485.667z"/>
<path style="fill:#2a9247; stroke:none;" d="M221.333 487.667C221.278 487.722 221.222 488.778 221.667 488.333C221.722 488.278 221.778 487.222 221.333 487.667z"/>
<path style="fill:#299648; stroke:none;" d="M220.333 490.667C220.278 490.722 220.222 491.778 220.667 491.333C220.722 491.278 220.778 490.222 220.333 490.667z"/>
<path style="fill:#2a9147; stroke:none;" d="M219.333 493.667C219.278 493.722 219.222 494.778 219.667 494.333C219.722 494.278 219.778 493.222 219.333 493.667z"/>
<path style="fill:#2a8f46; stroke:none;" d="M595.333 495.667C595.278 495.722 595.222 496.778 595.667 496.333C595.722 496.278 595.778 495.222 595.333 495.667z"/>
<path style="fill:#2c7d43; stroke:none;" d="M218.333 496.667C218.278 496.722 218.222 497.778 218.667 497.333C218.722 497.278 218.778 496.222 218.333 496.667z"/>
<path style="fill:#28a64b; stroke:none;" d="M331 498C335.469 499.875 341.191 499 346 499L377 499L483 499C478.531 497.125 472.809 498 468 498L437 498L331 498z"/>
<path style="fill:#2d6e3f; stroke:none;" d="M596.333 498.667C596.278 498.722 596.222 499.778 596.667 499.333C596.722 499.278 596.778 498.222 596.333 498.667z"/>
<path style="fill:#2c7e43; stroke:none;" d="M645.333 498.667C645.278 498.722 645.222 499.778 645.667 499.333C645.722 499.278 645.778 498.222 645.333 498.667z"/>
<path style="fill:#2c7942; stroke:none;" d="M326 499C327.506 499.683 328.315 499.826 330 500C328.494 499.317 327.685 499.174 326 499z"/>
<path style="fill:#333333; stroke:none;" d="M303 740L440 740L472 740C481.392 740 491.637 739.913 499.999 734.925C515.586 725.628 511 700.258 511 685L511 556C511 541.896 515.437 518.342 504.671 507.213C494.135 496.322 473.681 499 460 499L351 499C335.969 499 317.782 497.17 307.789 511.004C302.264 518.654 303 527.05 303 536L303 575L303 740z"/>
<path style="fill:#2b8745; stroke:none;" d="M483 499C484.769 499.779 486.036 499.912 488 500C486.231 499.221 484.964 499.088 483 499z"/>
<path style="fill:#2c7d43; stroke:none;" d="M217.333 500.667C217.278 500.722 217.222 501.778 217.667 501.333C217.722 501.278 217.778 500.222 217.333 500.667z"/>
<path style="fill:#299748; stroke:none;" d="M491.667 500.333C491.222 500.778 492.278 500.722 492.333 500.667C492.778 500.222 491.722 500.278 491.667 500.333z"/>
<path style="fill:#299a49; stroke:none;" d="M596.333 500.667C596.278 500.722 596.222 501.778 596.667 501.333C596.722 501.278 596.778 500.222 596.333 500.667z"/>
<path style="fill:#2e683e; stroke:none;" d="M755 500C759.72 501.981 765.92 501 771 501L803 501L893 501C907.646 501 924.728 498.602 939 502C936.152 498.741 930.068 500 926 500L893 500L755 500z"/>
<path style="fill:#333333; stroke:none;" d="M938 501L802 501L767 501C758.707 501 750.592 500.404 743.001 504.402C725.519 513.61 730 538.586 730 555L730 683C730 697.878 725.822 721.179 737.185 732.895C747.749 743.786 768.296 740 782 740L890 740C904.845 740 922.281 742.498 932.443 728.996C938.17 721.387 938 712.041 938 703L938 665L938 501z"/>
<path style="fill:#2d7040; stroke:none;" d="M644 502L644 505C644.696 503.446 644.696 503.554 644 502z"/>
<path style="fill:#2d7441; stroke:none;" d="M938 502L938 714C939.981 709.28 939 703.08 939 698L939 666L939 555L939 519C939 513.65 940.085 506.969 938 502z"/>
<path style="fill:#2a8d46; stroke:none;" d="M216 504L216 509C216.83 506.969 216.83 506.031 216 504z"/>
<path style="fill:#2c7842; stroke:none;" d="M598.333 509.667C598.278 509.722 598.222 510.778 598.667 510.333C598.722 510.278 598.778 509.222 598.333 509.667z"/>
<path style="fill:#299848; stroke:none;" d="M215 511L215 516C215.83 513.969 215.83 513.031 215 511z"/>
<path style="fill:#2a8f47; stroke:none;" d="M642 514L642 518C642.71 516.241 642.71 515.759 642 514z"/>
<path style="fill:#2f5f3c; stroke:none;" d="M509.333 515.667C509.278 515.722 509.222 516.778 509.667 516.333C509.722 516.278 509.778 515.222 509.333 515.667z"/>
<path style="fill:#2c7f43; stroke:none;" d="M599 515L599 520C599.83 517.97 599.83 517.03 599 515z"/>
<path style="fill:#2d7140; stroke:none;" d="M510.333 518.667C510.278 518.722 510.222 519.778 510.667 519.333C510.722 519.278 510.778 518.222 510.333 518.667z"/>
<path style="fill:#26b44e; stroke:none;" d="M599 520L599 717C600.875 712.531 600 706.809 600 702L600 673L600 570L600 536C600 530.92 600.981 524.72 599 520z"/>
<path style="fill:#28a04a; stroke:none;" d="M214 521L214 527C214.951 524.715 214.951 523.285 214 521z"/>
<path style="fill:#299a49; stroke:none;" d="M511 521L511 524C511.696 522.446 511.696 522.554 511 521z"/>
<path style="fill:#2e613d; stroke:none;" d="M730 521L730 525C730.71 523.24 730.71 522.76 730 521z"/>
<path style="fill:#2d7441; stroke:none;" d="M641 522L641 530C642.161 527.23 642.161 524.77 641 522z"/>
<path style="fill:#2d7240; stroke:none;" d="M302 523L302 527C302.71 525.241 302.71 524.759 302 523z"/>
<path style="fill:#314837; stroke:none;" d="M511 524L511 713C512.769 708.785 512 703.535 512 699L512 671L512 572L512 540C512 534.92 512.981 528.72 511 524z"/>
<path style="fill:#324236; stroke:none;" d="M600 524L600 708C601.769 703.785 601 698.535 601 694L601 666L601 570L601 539C601 534.191 601.875 528.469 600 524z"/>
<path style="fill:#27af4d; stroke:none;" d="M512 526L512 710C513.769 705.785 513 700.536 513 696L513 668L513 572L513 541C513 536.191 513.875 530.469 512 526z"/>
<path style="fill:#2e663e; stroke:none;" d="M729 526L729 714C730.981 709.28 730 703.08 730 698L730 667L730 568L730 540C730 535.465 730.769 530.215 729 526z"/>
<path style="fill:#25bd50; stroke:none;" d="M214 527L214 980L301 980C293.6 976.895 282.007 979 274 979L215 979L215 659L215 567L215 541C215 536.464 215.769 531.215 214 527z"/>
<path style="fill:#304d38; stroke:none;" d="M302 527L302 740C303.981 735.28 303 729.08 303 724L303 692L303 581L303 545C303 539.381 304.189 532.217 302 527z"/>
<path style="fill:#27ae4d; stroke:none;" d="M301 529L301 740C302.981 735.28 302 729.08 302 724L302 693L302 582L302 546C302 540.65 303.085 533.969 301 529z"/>
<path style="fill:#299949; stroke:none;" d="M641 530L641 714C642.769 709.785 642 704.535 642 700L642 672L642 576L642 545C642 540.191 642.875 534.469 641 530z"/>
<path style="fill:#2d7441; stroke:none;" d="M641 714L641 721C642.059 718.466 642.059 716.534 641 714z"/>
<path style="fill:#299848; stroke:none;" d="M729 714L729 717C729.696 715.446 729.696 715.554 729 714z"/>
<path style="fill:#2f5b3b; stroke:none;" d="M510 716L510 719C510.696 717.446 510.696 717.554 510 716z"/>
<path style="fill:#2d7541; stroke:none;" d="M937 716L937 719C937.696 717.446 937.696 717.554 937 716z"/>
<path style="fill:#2f5b3b; stroke:none;" d="M599 717L599 722C599.83 719.97 599.83 719.03 599 717z"/>
<path style="fill:#2e653d; stroke:none;" d="M730 717L730 720C730.696 718.446 730.696 718.554 730 717z"/>
<path style="fill:#2f5e3c; stroke:none;" d="M731 721L731 724C731.696 722.446 731.696 722.554 731 721z"/>
<path style="fill:#2f593b; stroke:none;" d="M1025 723L1025 728C1025.83 725.97 1025.83 725.03 1025 723z"/>
<path style="fill:#2a9147; stroke:none;" d="M598 724L598 727C598.696 725.446 598.696 725.554 598 724z"/>
<path style="fill:#2d7441; stroke:none;" d="M642 724L642 728C642.71 726.241 642.71 725.759 642 724z"/>
<path style="fill:#299949; stroke:none;" d="M1024 728L1024 731C1024.7 729.446 1024.7 729.554 1024 728z"/>
<path style="fill:#2b8043; stroke:none;" d="M597.333 731.667C597.278 731.722 597.222 732.778 597.667 732.333C597.722 732.278 597.778 731.222 597.333 731.667z"/>
<path style="fill:#2a8b46; stroke:none;" d="M643 731L643 734C643.696 732.446 643.696 732.554 643 731z"/>
<path style="fill:#2e653e; stroke:none;" d="M1024 731L1024 734C1024.7 732.446 1024.7 732.554 1024 731z"/>
<path style="fill:#299648; stroke:none;" d="M1023 734L1023 737C1023.7 735.446 1023.7 735.554 1023 734z"/>
<path style="fill:#299949; stroke:none;" d="M496.667 736.333C496.222 736.778 497.278 736.722 497.333 736.667C497.778 736.222 496.722 736.278 496.667 736.333z"/>
<path style="fill:#2b8344; stroke:none;" d="M596.333 736.667C596.278 736.722 596.222 737.778 596.667 737.333C596.722 737.278 596.778 736.222 596.333 736.667z"/>
<path style="fill:#2a8d46; stroke:none;" d="M644.333 736.667C644.278 736.722 644.222 737.778 644.667 737.333C644.722 737.278 644.778 736.222 644.333 736.667z"/>
<path style="fill:#2a8c46; stroke:none;" d="M490.667 738.333C490.222 738.778 491.278 738.722 491.333 738.667C491.778 738.222 490.722 738.278 490.667 738.333z"/>
<path style="fill:#2e633d; stroke:none;" d="M644.333 738.667C644.278 738.722 644.222 739.778 644.667 739.333C644.722 739.278 644.778 738.222 644.333 738.667z"/>
<path style="fill:#2c7942; stroke:none;" d="M485 739C486.248 739.685 486.548 739.749 488 740C486.752 739.315 486.452 739.251 485 739z"/>
<path style="fill:#2b8043; stroke:none;" d="M749.667 739.333C749.222 739.778 750.278 739.722 750.333 739.667C750.778 739.222 749.722 739.278 749.667 739.333z"/>
<path style="fill:#299648; stroke:none;" d="M915.667 739.333C915.223 739.777 916.278 739.722 916.333 739.667C916.778 739.222 915.722 739.278 915.667 739.333z"/>
<path style="fill:#299949; stroke:none;" d="M302 740C306.969 742.085 313.65 741 319 741L355 741L481 741C476.031 738.915 469.35 740 464 740L428 740L302 740z"/>
<path style="fill:#2a9147; stroke:none;" d="M595 740L595 743C595.696 741.446 595.696 741.554 595 740z"/>
<path style="fill:#2f583b; stroke:none;" d="M754 740C758.72 741.981 764.92 741 770 741L801 741L910 741C905.28 739.019 899.08 740 894 740L863 740L754 740z"/>
<path style="fill:#2a9147; stroke:none;" d="M910 740C911.248 740.685 911.548 740.749 913 741C911.752 740.315 911.451 740.251 910 740z"/>
<path style="fill:#2e613d; stroke:none;" d="M594.333 745.667C594.278 745.722 594.222 746.778 594.667 746.333C594.722 746.278 594.778 745.222 594.333 745.667z"/>
<path style="fill:#2f5f3c; stroke:none;" d="M1020.33 747.667C1020.28 747.722 1020.22 748.778 1020.67 748.333C1020.72 748.278 1020.78 747.222 1020.33 747.667z"/>
<path style="fill:#2e663e; stroke:none;" d="M1019.33 750.667C1019.28 750.722 1019.22 751.778 1019.67 751.333C1019.72 751.278 1019.78 750.222 1019.33 750.667z"/>
<path style="fill:#2e633d; stroke:none;" d="M592.333 751.667C592.278 751.722 592.222 752.778 592.667 752.333C592.722 752.278 592.778 751.222 592.333 751.667z"/>
<path style="fill:#2f603c; stroke:none;" d="M1018.33 753.667C1018.28 753.722 1018.22 754.778 1018.67 754.333C1018.72 754.278 1018.78 753.222 1018.33 753.667z"/>
<path style="fill:#2e613d; stroke:none;" d="M591.333 754.667C591.278 754.722 591.222 755.778 591.667 755.333C591.722 755.278 591.778 754.222 591.333 754.667z"/>
<path style="fill:#2d6e3f; stroke:none;" d="M650.333 757.667C650.278 757.722 650.222 758.778 650.667 758.333C650.722 758.278 650.778 757.222 650.333 757.667z"/>
<path style="fill:#2a8f47; stroke:none;" d="M712.667 820.333C712.222 820.778 713.278 820.722 713.333 820.667C713.778 820.222 712.722 820.278 712.667 820.333z"/>
<path style="fill:#2e613d; stroke:none;" d="M522.667 821.333C522.222 821.778 523.278 821.722 523.333 821.667C523.778 821.222 522.722 821.278 522.667 821.333z"/>
<path style="fill:#2a9347; stroke:none;" d="M715.667 821.333C715.222 821.778 716.278 821.722 716.333 821.667C716.778 821.222 715.722 821.278 715.667 821.333z"/>
<path style="fill:#2b8043; stroke:none;" d="M947 821C948.248 821.685 948.548 821.749 950 822C948.752 821.315 948.451 821.251 947 821z"/>
<path style="fill:#2f5e3c; stroke:none;" d="M519.667 822.333C519.222 822.778 520.278 822.722 520.333 822.667C520.778 822.222 519.722 822.278 519.667 822.333z"/>
<path style="fill:#2d6d3f; stroke:none;" d="M717 822C718.248 822.685 718.548 822.749 720 823C718.752 822.315 718.452 822.251 717 822z"/>
<path style="fill:#2f5b3b; stroke:none;" d="M945.667 822.333C945.222 822.778 946.278 822.722 946.333 822.667C946.778 822.222 945.722 822.278 945.667 822.333z"/>
<path style="fill:#2a9247; stroke:none;" d="M721.667 823.333C721.222 823.778 722.278 823.722 722.333 823.667C722.778 823.222 721.722 823.278 721.667 823.333z"/>
<path style="fill:#2e613d; stroke:none;" d="M512.667 824.333C512.222 824.778 513.278 824.722 513.333 824.667C513.778 824.222 512.722 824.278 512.667 824.333z"/>
<path style="fill:#2b8444; stroke:none;" d="M724.667 824.333C724.223 824.777 725.278 824.722 725.333 824.667C725.778 824.222 724.722 824.278 724.667 824.333z"/>
<path style="fill:#2e683e; stroke:none;" d="M938.667 824.333C938.222 824.778 939.278 824.722 939.333 824.667C939.778 824.222 938.722 824.278 938.667 824.333z"/>
<path style="fill:#299447; stroke:none;" d="M933.667 825.333C933.222 825.778 934.278 825.722 934.333 825.667C934.778 825.222 933.722 825.278 933.667 825.333z"/>
<path style="fill:#2d7140; stroke:none;" d="M503 826C504.248 826.685 504.548 826.749 506 827C504.752 826.315 504.452 826.251 503 826z"/>
<path style="fill:#28a04a; stroke:none;" d="M732 826C733.506 826.683 734.315 826.826 736 827C734.494 826.317 733.685 826.174 732 826z"/>
<path style="fill:#299648; stroke:none;" d="M928 826C929.248 826.685 929.548 826.749 931 827C929.752 826.315 929.451 826.251 928 826z"/>
<path style="fill:#299848; stroke:none;" d="M494 827C495.248 827.685 495.548 827.749 497 828C495.752 827.315 495.452 827.251 494 827z"/>
<path style="fill:#2d6d3f; stroke:none;" d="M497 827C498.248 827.685 498.548 827.749 500 828C498.752 827.315 498.452 827.251 497 827z"/>
<path style="fill:#2f5e3c; stroke:none;" d="M736 827C737.248 827.685 737.548 827.749 739 828C737.752 827.315 737.452 827.251 736 827z"/>
<path style="fill:#2a9147; stroke:none;" d="M739 827C740.248 827.685 740.549 827.749 742 828C740.752 827.315 740.451 827.251 739 827z"/>
<path style="fill:#2e693e; stroke:none;" d="M923 827C924.769 827.779 926.036 827.912 928 828C926.231 827.221 924.964 827.088 923 827z"/>
<path style="fill:#28a34b; stroke:none;" d="M302 828C307.216 830.189 314.381 829 320 829L356 829L485 829C479.784 826.811 472.619 828 467 828L431 828L302 828z"/>
<path style="fill:#2d6f40; stroke:none;" d="M485 828C486.769 828.779 488.036 828.912 490 829C488.231 828.221 486.964 828.088 485 828z"/>
<path style="fill:#2f5a3b; stroke:none;" d="M741 828C742.769 828.779 744.036 828.912 746 829C744.231 828.221 742.964 828.088 741 828z"/>
<path style="fill:#28a14a; stroke:none;" d="M746 828C747.506 828.683 748.315 828.826 750 829C748.494 828.317 747.685 828.174 746 828z"/>
<path style="fill:#305239; stroke:none;" d="M918 828C919.769 828.779 921.036 828.912 923 829C921.231 828.221 919.964 828.088 918 828z"/>
<path style="fill:#27ae4d; stroke:none;" d="M301 829L301 980C302.661 976.041 302 971.26 302 967L302 942L302 863L302 841C302 837.017 302.552 832.699 301 829z"/>
<path style="fill:#304d38; stroke:none;" d="M302 829L302 980C303.661 976.041 303 971.26 303 967L303 942L303 863L303 841C303 837.017 303.552 832.699 302 829z"/>
<path style="fill:#2b8645; stroke:none;" d="M754 829C758.72 830.981 764.92 830 770 830L801 830L912 830C907.28 828.019 901.08 829 896 829L865 829L754 829z"/>
</svg>
